7
4.000000 0.198030 1.000000 1.000000 0.068918 0.068817 
6.000000 0.131223 1.000000 1.000000 0.018012 0.017989 
8.000000 0.052865 1.000000 1.000000 0.008861 0.008849 
10.000000 0.023381 1.000000 1.000000 0.003501 0.003499 
12.000000 0.008934 1.000000 1.000000 0.002182 0.002182 
14.000000 0.004826 1.000000 1.000000 0.001058 0.001055 
16.000000 0.001664 1.000000 1.000000 0.001037 0.001035 
