1 139.674248 42.478402 42.473113 21.338762 21.119513 21.136860 0.000074 0.000000 10.069388 3.574980 0.000000 12.292297 
2 702.997257 88.808466 88.669115 92.228712 30.830888 30.821300 34.343527 24.488466 24.486878 69.239564 19.581262 19.583686 
3 496.528871 71.358079 71.018682 55.652423 28.360177 28.318139 66.420331 16.595330 16.577675 31.585694 18.395205 18.383257 
4 359.346889 43.261363 43.244525 55.437444 22.268207 22.267207 19.951178 14.630260 14.628827 39.389300 10.715737 10.713893 
5 166.580784 36.695255 36.807534 23.188386 10.217766 10.226339 17.490598 8.461046 8.465865 30.751087 8.489743 8.492340 
6 112.862038 22.432152 22.344504 21.789134 9.042884 9.040407 8.379654 6.990231 6.989308 11.282154 6.311334 6.311205 
7 46.083354 13.494453 13.561599 5.142367 0.000000 5.436386 4.467961 4.012372 4.018328 1.966263 0.000000 6.385150 
