1 137.495546 42.497128 42.416191 20.731253 0.000000 21.131760 0.000069 0.000000 9.882621 3.105159 0.000000 12.294539 
2 702.717200 88.780846 88.642915 92.093677 30.837440 30.825953 34.116813 24.437763 24.435362 69.179454 19.584205 19.586183 
3 527.845108 69.307435 69.159651 53.905442 28.999735 28.991380 63.792158 16.730780 16.726788 29.846604 18.417286 18.415336 
4 360.745479 43.363154 43.323842 63.736888 20.382919 20.394095 20.678078 14.637468 14.636662 40.312971 10.772940 10.776660 
5 164.688768 36.672139 36.803194 22.909745 10.281136 10.231181 16.796037 8.494167 8.469629 30.501255 8.523964 8.486919 
6 112.861561 22.432135 22.344557 21.789085 9.042903 9.040388 8.379647 6.990274 6.989341 11.282116 6.311314 6.311227 
7 36.053740 14.775034 14.751323 3.730792 0.000000 5.484680 4.031901 0.000000 4.004589 1.951465 0.000000 6.411405 
