1 139.852454 42.393200 42.398533 21.224605 21.014523 21.031916 0.000066 0.000000 9.681981 3.845552 0.000000 12.251169 
2 692.803601 89.554011 89.406170 92.604688 30.768365 30.759289 34.601755 24.334006 24.333132 69.784002 19.577310 19.580512 
3 525.914158 69.265759 69.121793 53.372709 28.968635 28.961236 63.831561 16.717644 16.714181 29.620939 18.431765 18.430095 
4 361.278454 43.414553 43.374372 63.601853 20.352909 20.352264 20.598461 14.618525 14.616653 42.355348 12.420805 12.418860 
5 163.433197 36.698444 36.682008 23.130821 10.240420 10.256630 16.900898 8.499958 8.504813 30.623623 8.502341 8.509973 
6 113.136567 22.607819 22.517562 21.674251 9.054898 9.053729 8.347166 6.978556 6.978482 11.219693 6.302796 6.303339 
7 36.505499 14.833705 14.772784 3.795168 0.000000 5.470954 4.069622 4.003191 4.000755 1.949880 0.000000 6.420671 
