1 137.616925 42.494960 42.392820 20.389145 0.000000 21.115750 0.000066 0.000000 9.764459 2.995125 0.000000 12.290628 
2 702.716772 88.780423 88.643347 92.093809 30.837572 30.825824 34.116976 24.437928 24.435199 69.179834 19.584585 19.585805 
3 527.845400 69.307729 69.159360 53.905061 28.999354 28.991761 63.791995 16.730617 16.726951 29.846598 18.417281 18.415341 
4 361.071951 43.331304 43.299649 63.416338 20.372720 20.386392 20.523234 14.631283 14.636187 40.273907 10.771930 10.775629 
5 164.689200 36.727089 36.739031 23.089912 10.224288 10.256918 16.928212 8.461132 8.483686 30.625451 8.486075 8.509919 
6 112.861284 22.431859 22.344835 21.789048 9.042867 9.040424 8.379662 6.990290 6.989326 11.282168 6.311367 6.311175 
7 36.065771 14.799503 14.726787 3.739614 0.000000 5.486206 4.040151 4.003529 4.004388 1.966676 0.000000 6.415272 
