1 137.564048 42.488172 42.409379 20.524884 0.000000 21.125539 0.000067 0.000000 9.816021 3.057047 0.000000 12.294232 
2 702.716741 88.780390 88.643375 92.093811 30.837574 30.825821 34.116977 24.437928 24.435198 69.179796 19.584547 19.585842 
3 527.845332 69.307661 69.159427 53.905263 28.999556 28.991560 63.792103 16.730726 16.726842 29.846675 18.417358 18.415265 
4 360.949777 43.341741 43.310429 63.546631 20.376286 20.389321 20.594285 14.632883 14.637401 40.317239 10.773012 10.776408 
5 164.718913 36.735002 36.732648 23.013660 10.242004 10.251191 16.876999 8.474890 8.477621 30.576682 8.500372 8.503251 
6 112.861624 22.432198 22.344494 21.789045 9.042863 9.040427 8.379629 6.990256 6.989359 11.282126 6.311324 6.311217 
7 36.068867 14.796114 14.730008 3.730640 0.000000 5.490691 4.035028 4.002131 4.006846 1.963139 0.000000 6.413864 
