7
4.000000 175.874832 1.000000 1.000000 54.320881 54.220142 
6.000000 116.542519 1.000000 1.000000 14.723842 14.701118 
8.000000 46.950752 1.000000 1.000000 6.164773 6.151588 
10.000000 20.765327 1.000000 1.000000 2.493437 2.491636 
12.000000 7.934758 1.000000 1.000000 1.769580 1.769467 
14.000000 4.285766 1.000000 1.000000 0.851832 0.848502 
16.000000 1.477706 1.000000 1.000000 0.606182 0.603474 
