1 1116.687881 94.319706 94.244362 121.407952 40.231763 40.243511 73.838105 27.568445 27.556991 86.540922 26.818396 26.819458
2 692.599316 73.411698 73.356797 108.969738 28.121672 28.119911 33.398520 20.009533 20.017344 44.605553 18.639765 18.644430
3 301.312220 33.455560 33.440965 48.108288 12.013867 12.034891 32.794454 10.477291 10.481487 34.037266 10.694662 10.696235
