1 1118.296620 94.504573 94.327190 122.829944 40.425353 40.466422 74.822827 27.670003 27.622156 86.298437 26.751498 26.716543
2 720.277129 73.044572 72.887019 107.071885 28.415108 28.452978 30.253062 20.210441 20.194089 44.716815 17.542527 17.503967
3 303.147384 33.191405 33.306997 48.828582 12.106900 12.068053 33.050085 10.484025 10.472890 34.035747 10.714440 10.729720
