1 1121.034970 95.264116 95.188811 126.206410 40.582427 40.578979 76.944733 27.706442 27.709430 88.204416 26.623364 26.619960
2 711.378793 71.932673 71.897600 97.312439 28.601791 28.610357 33.986160 19.653009 19.650876 49.282451 17.351057 17.357294
3 308.661494 33.493891 33.520507 48.967505 12.023124 12.037210 33.059349 10.435367 10.429470 34.173652 10.621455 10.616278
