1 0.000000 0.000000 0.000000 127.753195 40.513622 40.506059 78.971687 27.691675 27.640567 90.238541 26.732108 26.742122
2 0.000000 0.000000 0.000000 105.432616 29.455300 29.555838 31.367654 20.437830 20.415542 46.696156 17.658804 17.651822
3 0.000000 0.000000 0.000000 49.054246 11.965477 11.972436 33.698186 10.425461 10.427542 34.766892 10.690510 10.690078
