
2011 all:
etac : slope=0.406877 +- 0.0237413  chi2=0.413303  843.74   93.7386
chic0: slope=0.316745 +- 0.0374134  chi2=0.613635  395.727  101.423
chic1: slope=0.312459 +- 0.0644933  chi2=0.693107  334.912  135.389
chic2: slope=0.297399 +- 0.0508061  chi2=0.167851  156.774  46.4145


2012 all:
etac:  slope=0.390395 +- 0.0190776  chi2=1.11505   854.482  70.2142
chic0: slope=0.366387 +- 0.0363482  chi2=0.0269407 518.232  87.6926
chic1: slope=0.413402 +- 0.0586819  chi2=0.415452  491.297  103.134
chic2: slope=0.327459 +- 0.0358374  chi2=0.267013  221.772  40.7799














2011 stat
etac : slope=0.409801 +- 0.0205525  chi2=0.533411  849.825  81.2964
chic0: slope=0.317102 +- 0.0355248  chi2=0.732378  399.305  96.7114
chic1: slope=0.313022 +- 0.0596692  chi2=0.800863  336.026  124.769
chic2: slope=0.297865 +- 0.0480848  chi2=0.204417  156.33   42.7636


2012 stat :
etac : slope=0.391745 +- 0.0154229  chi2=1.28589   856.493  64.5526
chic0: slope=0.365881 +- 0.032901   chi2=0.0316546 517.999  84.5429
chic1: slope=0.415088 +- 0.056385   chi2=0.47212   490.939  97.0029
chic2: slope=0.326616 +- 0.0332484  chi2=0.341128  222.835  37.7121