1 2172.041189 147.327641 147.291356 367.838950 67.271803 67.277202 204.254672 42.421146 42.421138 227.768766 47.139876 47.140048
2 1614.196792 110.306652 110.257866 181.005098 44.946813 44.948957 69.610947 33.659561 33.660346 149.674052 32.884533 32.885389
3 547.550798 63.622324 63.552354 84.561658 24.322213 24.323020 38.890620 19.675818 19.676581 60.714735 20.818931 20.820126
