1 2147.735013 146.892606 146.856486 368.946504 67.515365 67.520904 205.805616 42.601959 42.602034 226.282954 47.267377 47.268068
2 1629.459467 111.314343 111.264347 176.227004 45.022863 45.025260 69.350693 34.213237 34.214053 153.383884 32.736035 32.736764
3 578.383403 59.049878 58.988496 86.824693 24.920708 24.921586 41.309197 19.916386 19.917042 62.712613 21.039609 21.040668
