1 0.000000 0.000000 0.000000 382.115567 70.070144 69.582180 211.627891 44.222458 43.843083 231.221360 48.822336 48.504711
2 0.000000 0.000000 0.000000 166.253721 47.470633 47.458720 62.889007 35.030400 35.042004 146.770837 33.368200 33.379962
3 0.000000 0.000000 0.000000 76.911660 26.762785 26.837137 37.913823 20.354312 20.376648 59.828294 21.381362 21.397228
