1 2158.991067 147.644245 147.607620 368.467194 67.509975 67.514926 205.416648 42.597331 42.597367 225.957552 47.264060 47.264335
2 1638.305945 111.869050 111.818138 176.019511 45.018972 45.021216 69.151458 34.210768 34.210812 153.237980 32.733934 32.734456
3 581.770475 59.436211 59.372934 87.019786 24.916384 24.916915 41.397924 19.914408 19.914601 62.800434 21.037998 21.038699
