1 136.751049 42.270492 42.221688 24.001988 21.037581 21.030524 3.486731 0.000000 8.881438 4.064069 0.000000 12.310599
2 685.158855 88.162938 88.755899 97.511652 30.980281 30.947306 38.396295 24.495237 24.533261 73.721071 19.656939 19.645279
3 528.918362 68.936902 69.029368 54.626961 28.852317 28.876405 63.930283 16.711610 16.721336 29.860609 18.406411 18.417567
4 365.917954 42.408550 42.548448 65.992806 20.372020 20.382299 21.288722 14.630872 14.633736 40.714032 10.429075 10.784718
5 154.901879 37.140001 37.180461 24.377572 10.089100 10.118466 18.547495 8.390729 8.432378 32.804617 8.433885 8.448596
6 110.284582 22.163159 22.324360 22.658565 8.656720 9.055923 9.094626 6.749698 6.973763 12.024632 6.310823 6.311657
7 46.112251 13.801956 13.801624 4.919277 0.000000 5.435701 4.271300 3.465132 3.994450 1.994067 0.000000 6.398654
