1 137.899747 42.215982 42.226788 22.842704 20.968098 20.997869 0.000080 0.000000 10.196936 3.297699 0.000000 12.286755
2 702.791646 88.855866 88.569010 92.108092 30.852024 30.811711 34.119723 24.440803 24.432580 69.180935 19.585785 19.584803
3 528.887652 68.906179 69.060071 54.621778 28.847107 28.881561 63.927602 16.708912 16.724000 29.858562 18.404346 18.419595
4 367.370237 42.487539 42.484439 64.391778 20.333573 20.340256 20.406937 14.616675 14.618353 39.858219 10.746038 10.747286
5 157.369872 37.005782 37.181068 23.600267 10.114900 10.114232 17.839593 8.391312 8.388542 31.876069 8.406778 8.404376
6 112.920913 22.491898 22.285676 21.783617 9.037612 9.046013 8.377257 6.988012 6.991860 11.280602 6.309911 6.312859
7 46.101023 13.817470 13.795432 4.715660 0.000000 5.429095 4.147633 3.982974 3.983038 1.814361 0.000000 6.394338
