7
4.000000 0.193322 1.000000 1.000000 0.059132 0.059038 
6.000000 0.106737 1.000000 1.000000 0.013130 0.013121 
8.000000 0.061039 1.000000 1.000000 0.005759 0.005756 
10.000000 0.025302 1.000000 1.000000 0.002926 0.002924 
12.000000 0.008947 1.000000 1.000000 0.001663 0.001660 
14.000000 0.005297 1.000000 1.000000 0.000748 0.000748 
17.000000 0.001106 2.000000 2.000000 0.000393 0.000392 
