1 278.774733 81.933289 81.957087 136.030971 39.069764 39.008929 24.319671 23.404912 27.686664 21.787995 0.000000 30.306194
2 1196.002932 135.275891 135.323037 175.410319 60.233950 60.195261 166.341491 39.101607 39.046692 128.648543 39.807396 39.762248
3 1262.245655 111.797005 111.709786 106.351635 42.102438 42.479787 44.524927 29.117452 29.118983 135.057895 28.852812 28.854350
4 817.242403 82.243354 82.437047 165.872009 28.958709 28.952104 50.205359 25.514756 25.475432 68.743206 20.850104 20.809741
5 340.142214 57.238520 57.263696 30.295142 24.204083 24.148610 48.954304 15.191195 15.177478 53.353168 15.712212 15.697926
6 259.173607 33.744859 33.842157 37.513641 11.915163 11.932112 22.255387 10.113445 10.120096 7.396382 0.000000 9.406593
7 99.668907 25.870960 25.875207 17.134228 8.387436 8.392223 0.371696 0.000000 3.392301 26.692802 6.940487 6.925663
