1 280.009380 81.705530 81.698076 140.438431 39.610834 38.870228 25.306364 0.000000 27.605709 21.871695 0.000000 30.192835 
2 1195.441909 135.398337 135.278763 176.297368 60.226896 60.227069 166.757757 39.080641 39.081230 128.689350 39.785650 39.787405 
3 1275.320783 111.126588 111.095641 103.538998 42.451058 42.467820 41.518824 29.025726 29.020905 130.705115 28.666854 28.663228 
4 817.325658 82.373623 82.326371 166.179167 28.961293 28.960117 50.372195 25.505007 25.489777 68.766830 20.827075 20.832155 
5 345.165021 56.987409 56.848630 28.295501 24.094806 24.111093 47.546382 15.118749 15.121585 51.532768 15.597443 15.605991 
6 275.042557 33.447041 33.441147 33.067913 12.167678 12.169124 18.891958 10.230413 10.228992 3.848782 0.000000 9.522830 
7 94.410265 26.777164 26.648118 15.665755 8.413745 8.407033 0.000017 0.000000 3.314406 26.492451 6.940649 6.937695 
