1 279.087255 81.755469 81.736058 136.966845 40.919065 40.319608 25.110761 0.000000 27.954588 18.194798 0.000000 30.389078 
2 1194.615338 135.351396 135.236161 166.013474 59.799284 59.798653 157.198843 39.195958 39.196157 133.013071 39.724866 39.726172 
3 1276.049243 111.121639 111.069437 109.673838 42.620521 42.638253 43.726965 29.384782 29.386908 129.637716 29.287994 29.288784 
4 816.821718 82.359936 82.318347 164.714738 28.986784 28.983840 53.826485 25.007871 24.987665 68.137316 21.290334 21.299074 
5 345.374683 56.927334 56.906543 31.430132 24.108182 24.115879 50.057667 15.898871 15.906118 50.042109 15.190723 15.189545 
6 252.385885 34.740873 34.529069 36.253726 12.086772 12.088818 22.877260 10.175370 10.158445 7.962532 0.000000 9.727412 
7 106.092271 25.605655 25.625014 14.623165 8.258345 8.242903 0.000012 0.000000 2.506814 26.796641 7.100732 7.088043 
