1 279.932886 81.661395 81.739442 140.175534 39.619370 38.854744 25.164056 0.000000 27.610431 21.843420 0.000000 30.202968 
2 1196.436426 135.341326 135.210212 174.756559 60.173412 60.240285 165.939630 39.053110 39.084800 128.332399 39.763791 39.797315 
3 1275.275285 111.116371 111.074208 102.776326 42.439480 42.453375 41.118693 29.017210 29.018138 130.556067 28.664201 28.663683 
4 817.369526 82.360668 82.305467 165.651612 28.952669 28.950360 50.046437 25.500538 25.485177 68.613280 20.827034 20.829377 
5 345.182717 56.981841 56.847775 28.220651 24.082362 24.113589 47.508389 15.115272 15.121032 51.498257 15.594672 15.609045 
6 252.588170 34.767650 34.516553 36.701193 11.976000 11.975978 22.358946 10.133762 10.138008 7.780007 0.000000 9.438735 
7 106.184814 25.618409 25.611763 16.050110 8.486176 8.478656 0.000000 0.000000 3.080715 25.510477 6.967513 6.960606 
