1 279.963106 81.686301 81.715663 140.272076 39.608406 38.867073 25.232227 0.000000 27.606012 21.895202 0.000000 30.198708 
2 1195.076812 135.128138 135.047725 175.350519 60.022407 60.082289 166.035008 39.015201 39.036134 128.282068 39.725394 39.745415 
3 1261.357584 110.356123 110.318787 104.960456 41.938188 41.951225 40.106025 28.745284 28.746538 131.720647 28.575822 28.576463 
4 805.766296 82.160020 82.116810 163.149248 27.777187 27.782498 48.652456 25.120127 25.117390 68.139946 20.849776 20.850414 
5 333.011593 54.451840 54.443092 35.825807 23.935157 23.961208 49.730088 15.057727 15.066596 50.425224 15.446135 15.453455 
6 274.218220 33.228273 33.221001 30.608047 12.839640 12.843306 18.659059 10.306802 10.306449 4.378084 0.000000 9.585829 
7 78.243745 28.582210 28.446771 15.699662 8.415675 8.409887 0.000013 0.000000 3.013083 26.600861 6.945808 6.942662 
