1 279.975034 81.686512 81.715529 140.274265 39.605779 38.867149 25.233871 0.000000 27.606017 21.896937 0.000000 30.198777 
2 1199.607805 135.331655 135.310926 164.471303 58.992216 58.954922 167.149616 39.077736 39.093319 123.377731 38.529695 38.513102 
3 1278.518371 111.058676 111.027447 104.183840 42.386210 42.407712 41.611163 29.028449 29.010838 130.751592 28.648039 28.638482 
4 852.011110 77.587944 77.441782 170.162137 28.991598 28.959361 49.499329 26.774857 26.774808 71.571559 20.130272 20.171131 
5 362.066829 51.983810 51.883597 26.799106 23.998290 24.003769 49.836100 14.576742 14.581754 51.638263 15.382714 15.388082 
6 275.961652 33.408353 33.401065 35.141011 12.094890 12.091965 20.398956 10.340492 10.337173 4.401712 0.000000 9.482715 
7 106.281098 25.439331 25.469225 15.533146 9.158949 9.144147 0.000009 0.000000 3.278576 25.351718 6.976659 6.963777 
